EESchema Schematic File Version 2
LIBS:power
LIBS:device
LIBS:transistors
LIBS:conn
LIBS:linear
LIBS:regul
LIBS:74xx
LIBS:cmos4000
LIBS:adc-dac
LIBS:memory
LIBS:xilinx
LIBS:microcontrollers
LIBS:dsp
LIBS:microchip
LIBS:analog_switches
LIBS:motorola
LIBS:texas
LIBS:intel
LIBS:audio
LIBS:interface
LIBS:digital-audio
LIBS:philips
LIBS:display
LIBS:cypress
LIBS:siliconi
LIBS:opto
LIBS:atmel
LIBS:contrib
LIBS:valves
EELAYER 25 0
EELAYER END
$Descr A4 11693 8268
encoding utf-8
Sheet 1 1
Title ""
Date ""
Rev ""
Comp ""
Comment1 ""
Comment2 ""
Comment3 ""
Comment4 ""
$EndDescr
$Comp
L LM324 U1
U 1 1 5C23A048
P 3300 2750
F 0 "U1" H 3300 2950 50  0000 L CNN
F 1 "LM324" H 3300 2550 50  0000 L CNN
F 2 "my_lib:DIP-14_W7.62mm_SMDSocket_SmallPads" H 3250 2850 50  0001 C CNN
F 3 "" H 3350 2950 50  0000 C CNN
	1    3300 2750
	1    0    0    -1  
$EndComp
$Comp
L LM324 U1
U 2 1 5C23A0B7
P 3300 3550
F 0 "U1" H 3300 3750 50  0000 L CNN
F 1 "LM324" H 3300 3350 50  0000 L CNN
F 2 "my_lib:DIP-14_W7.62mm_SMDSocket_SmallPads" H 3250 3650 50  0001 C CNN
F 3 "" H 3350 3750 50  0000 C CNN
	2    3300 3550
	1    0    0    -1  
$EndComp
$Comp
L LM324 U1
U 3 1 5C23A120
P 3300 4400
F 0 "U1" H 3300 4600 50  0000 L CNN
F 1 "LM324" H 3300 4200 50  0000 L CNN
F 2 "my_lib:DIP-14_W7.62mm_SMDSocket_SmallPads" H 3250 4500 50  0001 C CNN
F 3 "" H 3350 4600 50  0000 C CNN
	3    3300 4400
	1    0    0    -1  
$EndComp
$Comp
L LM324 U1
U 4 1 5C23A19B
P 3300 5250
F 0 "U1" H 3300 5450 50  0000 L CNN
F 1 "LM324" H 3300 5050 50  0000 L CNN
F 2 "my_lib:DIP-14_W7.62mm_SMDSocket_SmallPads" H 3250 5350 50  0001 C CNN
F 3 "" H 3350 5450 50  0000 C CNN
	4    3300 5250
	1    0    0    -1  
$EndComp
Text GLabel 1800 1950 0    60   Input ~ 0
vin
Text GLabel 1850 2500 0    60   Input ~ 0
gnd
Text GLabel 2900 2450 0    60   Input ~ 0
vin
Text GLabel 2900 3250 0    60   Input ~ 0
vin
Text GLabel 2900 4100 0    60   Input ~ 0
vin
Text GLabel 2900 4950 0    60   Input ~ 0
vin
Text GLabel 2900 3050 0    60   Input ~ 0
gnd
Text GLabel 2950 3850 0    60   Input ~ 0
gnd
Text GLabel 2950 4700 0    60   Input ~ 0
gnd
Text GLabel 2950 5550 0    60   Input ~ 0
gnd
Wire Wire Line
	2900 2450 3200 2450
Wire Wire Line
	2900 3050 3200 3050
Wire Wire Line
	2900 3250 3200 3250
Wire Wire Line
	2950 3850 3200 3850
Wire Wire Line
	2900 4100 3200 4100
Wire Wire Line
	2950 4700 3200 4700
Wire Wire Line
	2900 4950 3200 4950
Wire Wire Line
	2950 5550 3200 5550
$Comp
L LM7809ACT U2
U 1 1 5C23A506
P 6600 2150
F 0 "U2" H 6400 2350 50  0000 C CNN
F 1 "LM7809ACT" H 6600 2350 50  0000 L CNN
F 2 "my_lib:to220_smd" H 6600 2250 50  0000 C CIN
F 3 "" H 6600 2150 50  0000 C CNN
	1    6600 2150
	1    0    0    -1  
$EndComp
$Comp
L POT RV1
U 1 1 5C23A84B
P 7350 2450
F 0 "RV1" V 7175 2450 50  0000 C CNN
F 1 "POT" V 7250 2450 50  0000 C CNN
F 2 "my_lib:pot_smd" H 7350 2450 50  0001 C CNN
F 3 "" H 7350 2450 50  0000 C CNN
	1    7350 2450
	1    0    0    -1  
$EndComp
$Comp
L POT RV2
U 1 1 5C23A95A
P 7800 2450
F 0 "RV2" V 7625 2450 50  0000 C CNN
F 1 "POT" V 7700 2450 50  0000 C CNN
F 2 "my_lib:pot_smd" H 7800 2450 50  0001 C CNN
F 3 "" H 7800 2450 50  0000 C CNN
	1    7800 2450
	1    0    0    -1  
$EndComp
$Comp
L POT RV3
U 1 1 5C23A9D1
P 8300 2450
F 0 "RV3" V 8125 2450 50  0000 C CNN
F 1 "POT" V 8200 2450 50  0000 C CNN
F 2 "my_lib:pot_smd" H 8300 2450 50  0001 C CNN
F 3 "" H 8300 2450 50  0000 C CNN
	1    8300 2450
	1    0    0    -1  
$EndComp
$Comp
L POT RV4
U 1 1 5C23AA22
P 8850 2450
F 0 "RV4" V 8675 2450 50  0000 C CNN
F 1 "POT" V 8750 2450 50  0000 C CNN
F 2 "my_lib:pot_smd" H 8850 2450 50  0001 C CNN
F 3 "" H 8850 2450 50  0000 C CNN
	1    8850 2450
	1    0    0    -1  
$EndComp
Wire Wire Line
	7000 2600 8850 2600
Connection ~ 7800 2600
Connection ~ 8300 2600
Wire Wire Line
	7000 2300 8850 2300
Connection ~ 8300 2300
Connection ~ 7800 2300
Text GLabel 6000 2100 0    60   Input ~ 0
vin
Text GLabel 7200 2100 2    60   Input ~ 0
v9
Wire Wire Line
	6000 2100 6200 2100
Text GLabel 6450 2450 0    60   Input ~ 0
gnd
Wire Wire Line
	6450 2450 6600 2450
Wire Wire Line
	6600 2450 6600 2400
Wire Wire Line
	7000 2100 7200 2100
Text GLabel 8050 2150 2    60   Input ~ 0
v9
Wire Wire Line
	8050 2150 8000 2150
Wire Wire Line
	8000 2150 8000 2300
Connection ~ 8000 2300
Text GLabel 7450 2750 0    60   Input ~ 0
gnd
Wire Wire Line
	7450 2750 7600 2750
Wire Wire Line
	7600 2750 7600 2600
Connection ~ 7600 2600
Text GLabel 7500 2350 2    60   Input ~ 0
vc1
Text GLabel 7950 2550 2    60   Input ~ 0
vc2
Text GLabel 8450 2350 2    60   Input ~ 0
vc3
Text GLabel 9000 2550 2    60   Input ~ 0
vc4
Wire Wire Line
	9000 2450 9000 2550
Wire Wire Line
	8450 2350 8450 2450
Wire Wire Line
	7950 2450 7950 2550
Wire Wire Line
	7500 2350 7500 2450
$Comp
L IRF540N Q1
U 1 1 5C23AF7A
P 6000 3750
F 0 "Q1" H 6250 3825 50  0000 L CNN
F 1 "IRF540N" H 6250 3750 50  0000 L CNN
F 2 "my_lib:to220_smd" H 6250 3675 50  0000 L CIN
F 3 "" H 6000 3750 50  0000 L CNN
	1    6000 3750
	1    0    0    -1  
$EndComp
$Comp
L IRF540N Q2
U 1 1 5C23B0B1
P 7050 3750
F 0 "Q2" H 7300 3825 50  0000 L CNN
F 1 "IRF540N" H 7300 3750 50  0000 L CNN
F 2 "my_lib:to220_smd" H 7300 3675 50  0000 L CIN
F 3 "" H 7050 3750 50  0000 L CNN
	1    7050 3750
	1    0    0    -1  
$EndComp
$Comp
L IRF540N Q3
U 1 1 5C23B130
P 8050 3750
F 0 "Q3" H 8300 3825 50  0000 L CNN
F 1 "IRF540N" H 8300 3750 50  0000 L CNN
F 2 "my_lib:to220_smd" H 8300 3675 50  0000 L CIN
F 3 "" H 8050 3750 50  0000 L CNN
	1    8050 3750
	1    0    0    -1  
$EndComp
$Comp
L IRF540N Q4
U 1 1 5C23B1AF
P 8950 3750
F 0 "Q4" H 9200 3825 50  0000 L CNN
F 1 "IRF540N" H 9200 3750 50  0000 L CNN
F 2 "my_lib:to220_smd" H 9200 3675 50  0000 L CIN
F 3 "" H 8950 3750 50  0000 L CNN
	1    8950 3750
	1    0    0    -1  
$EndComp
Wire Wire Line
	6100 3550 9050 3550
Connection ~ 7150 3550
Connection ~ 8150 3550
Text GLabel 7350 3400 0    60   Input ~ 0
vin
Wire Wire Line
	7350 3400 7450 3400
Wire Wire Line
	7450 3400 7450 3550
Connection ~ 7450 3550
Text GLabel 6000 4050 0    60   Input ~ 0
vout1
Text GLabel 7050 4050 0    60   Input ~ 0
vout2
Text GLabel 8050 4050 0    60   Input ~ 0
vout3
Text GLabel 8950 4050 0    60   Input ~ 0
vout4
Wire Wire Line
	6000 4050 6100 4050
Wire Wire Line
	6100 3950 6100 4100
Wire Wire Line
	7050 4050 7150 4050
Wire Wire Line
	7150 3950 7150 4100
Wire Wire Line
	8050 4050 8150 4050
Wire Wire Line
	8150 3950 8150 4100
Wire Wire Line
	8950 4050 9050 4050
Wire Wire Line
	9050 3950 9050 4100
Text GLabel 3700 2750 2    60   Input ~ 0
vreg1
Text GLabel 3700 3550 2    60   Input ~ 0
vreg2
Text GLabel 3700 4400 2    60   Input ~ 0
vreg3
Text GLabel 3700 5250 2    60   Input ~ 0
vreg4
Wire Wire Line
	3600 2750 3700 2750
Wire Wire Line
	3600 3550 3700 3550
Wire Wire Line
	3600 4400 3700 4400
Wire Wire Line
	3600 5250 3700 5250
Text GLabel 5650 3800 0    60   Input ~ 0
vreg1
Text GLabel 6850 3900 0    60   Input ~ 0
vreg2
Text GLabel 7850 3900 0    60   Input ~ 0
vreg3
Text GLabel 8750 3900 0    60   Input ~ 0
vreg4
Wire Wire Line
	5650 3800 5800 3800
Wire Wire Line
	6850 3900 6850 3800
Wire Wire Line
	7850 3900 7850 3800
Wire Wire Line
	8750 3900 8750 3800
Text GLabel 2900 2850 0    60   Input ~ 0
vout1
Text GLabel 2900 3650 0    60   Input ~ 0
vout2
Text GLabel 2900 4500 0    60   Input ~ 0
vout3
Text GLabel 2900 5350 0    60   Input ~ 0
vout4
Text GLabel 2900 2650 0    60   Input ~ 0
vc1
Text GLabel 2900 3450 0    60   Input ~ 0
vc2
Text GLabel 2900 4300 0    60   Input ~ 0
vc3
Text GLabel 2900 5150 0    60   Input ~ 0
vc4
Wire Wire Line
	2900 2650 3000 2650
Wire Wire Line
	2900 2850 3000 2850
Wire Wire Line
	2900 3450 3000 3450
Wire Wire Line
	2900 3650 3000 3650
Wire Wire Line
	2900 4300 3000 4300
Wire Wire Line
	2900 4500 3000 4500
Wire Wire Line
	2900 5150 3000 5150
Wire Wire Line
	2900 5350 3000 5350
$Comp
L CP C2
U 1 1 5C23D8F6
P 7000 2450
F 0 "C2" H 7025 2550 50  0000 L CNN
F 1 "CP" H 7025 2350 50  0000 L CNN
F 2 "my_lib:CP_Radial_D6.3mm_P2.50mm" H 7038 2300 50  0001 C CNN
F 3 "" H 7000 2450 50  0000 C CNN
	1    7000 2450
	1    0    0    -1  
$EndComp
Connection ~ 7350 2300
Connection ~ 7350 2600
$Comp
L CP C1
U 1 1 5C23DA2F
P 6100 4250
F 0 "C1" H 6125 4350 50  0000 L CNN
F 1 "CP" H 6125 4150 50  0000 L CNN
F 2 "my_lib:CP_Radial_D6.3mm_P2.50mm" H 6138 4100 50  0001 C CNN
F 3 "" H 6100 4250 50  0000 C CNN
	1    6100 4250
	1    0    0    -1  
$EndComp
$Comp
L CP C3
U 1 1 5C23DABA
P 7150 4250
F 0 "C3" H 7175 4350 50  0000 L CNN
F 1 "CP" H 7175 4150 50  0000 L CNN
F 2 "my_lib:CP_Radial_D6.3mm_P2.50mm" H 7188 4100 50  0001 C CNN
F 3 "" H 7150 4250 50  0000 C CNN
	1    7150 4250
	1    0    0    -1  
$EndComp
$Comp
L CP C4
U 1 1 5C23DB27
P 8150 4250
F 0 "C4" H 8175 4350 50  0000 L CNN
F 1 "CP" H 8175 4150 50  0000 L CNN
F 2 "my_lib:CP_Radial_D6.3mm_P2.50mm" H 8188 4100 50  0001 C CNN
F 3 "" H 8150 4250 50  0000 C CNN
	1    8150 4250
	1    0    0    -1  
$EndComp
$Comp
L CP C5
U 1 1 5C23DB88
P 9050 4250
F 0 "C5" H 9075 4350 50  0000 L CNN
F 1 "CP" H 9075 4150 50  0000 L CNN
F 2 "my_lib:CP_Radial_D6.3mm_P2.50mm" H 9088 4100 50  0001 C CNN
F 3 "" H 9050 4250 50  0000 C CNN
	1    9050 4250
	1    0    0    -1  
$EndComp
Connection ~ 6100 4050
Connection ~ 7150 4050
Connection ~ 8150 4050
Connection ~ 9050 4050
Wire Wire Line
	6100 4400 9050 4400
Connection ~ 7150 4400
Connection ~ 8150 4400
Text GLabel 6900 4550 0    60   Input ~ 0
gnd
Wire Wire Line
	6900 4550 7050 4550
Wire Wire Line
	7050 4550 7050 4400
Connection ~ 7050 4400
$Comp
L CONN_01X01 P1
U 1 1 5C23E00B
P 10150 4550
F 0 "P1" H 10150 4650 50  0000 C CNN
F 1 "CONN_01X01" V 10250 4550 50  0000 C CNN
F 2 "my_lib:conn_1_smd" H 10150 4550 50  0001 C CNN
F 3 "" H 10150 4550 50  0000 C CNN
	1    10150 4550
	1    0    0    -1  
$EndComp
$Comp
L CONN_01X01 P2
U 1 1 5C23E41D
P 10150 4800
F 0 "P2" H 10150 4900 50  0000 C CNN
F 1 "CONN_01X01" V 10250 4800 50  0000 C CNN
F 2 "my_lib:conn_1_smd" H 10150 4800 50  0001 C CNN
F 3 "" H 10150 4800 50  0000 C CNN
	1    10150 4800
	1    0    0    -1  
$EndComp
$Comp
L CONN_01X01 P3
U 1 1 5C23E496
P 10150 5100
F 0 "P3" H 10150 5200 50  0000 C CNN
F 1 "CONN_01X01" V 10250 5100 50  0000 C CNN
F 2 "my_lib:conn_1_smd" H 10150 5100 50  0001 C CNN
F 3 "" H 10150 5100 50  0000 C CNN
	1    10150 5100
	1    0    0    -1  
$EndComp
$Comp
L CONN_01X01 P4
U 1 1 5C23E4FB
P 10150 5450
F 0 "P4" H 10150 5550 50  0000 C CNN
F 1 "CONN_01X01" V 10250 5450 50  0000 C CNN
F 2 "my_lib:conn_1_smd" H 10150 5450 50  0001 C CNN
F 3 "" H 10150 5450 50  0000 C CNN
	1    10150 5450
	1    0    0    -1  
$EndComp
$Comp
L CONN_01X01 P6
U 1 1 5C23E6F2
P 10600 4550
F 0 "P6" H 10600 4650 50  0000 C CNN
F 1 "CONN_01X01" V 10700 4550 50  0000 C CNN
F 2 "my_lib:conn_1_smd" H 10600 4550 50  0001 C CNN
F 3 "" H 10600 4550 50  0000 C CNN
	1    10600 4550
	1    0    0    -1  
$EndComp
$Comp
L CONN_01X01 P7
U 1 1 5C23E7FF
P 10600 4850
F 0 "P7" H 10600 4950 50  0000 C CNN
F 1 "CONN_01X01" V 10700 4850 50  0000 C CNN
F 2 "my_lib:conn_1_smd" H 10600 4850 50  0001 C CNN
F 3 "" H 10600 4850 50  0000 C CNN
	1    10600 4850
	1    0    0    -1  
$EndComp
$Comp
L CONN_01X01 P8
U 1 1 5C23E8E6
P 10600 5100
F 0 "P8" H 10600 5200 50  0000 C CNN
F 1 "CONN_01X01" V 10700 5100 50  0000 C CNN
F 2 "my_lib:conn_1_smd" H 10600 5100 50  0001 C CNN
F 3 "" H 10600 5100 50  0000 C CNN
	1    10600 5100
	1    0    0    -1  
$EndComp
$Comp
L CONN_01X01 P9
U 1 1 5C23E9B9
P 10600 5450
F 0 "P9" H 10600 5550 50  0000 C CNN
F 1 "CONN_01X01" V 10700 5450 50  0000 C CNN
F 2 "my_lib:conn_1_smd" H 10600 5450 50  0001 C CNN
F 3 "" H 10600 5450 50  0000 C CNN
	1    10600 5450
	1    0    0    -1  
$EndComp
$Comp
L CONN_01X01 P10
U 1 1 5C23EA74
P 10600 5800
F 0 "P10" H 10600 5900 50  0000 C CNN
F 1 "CONN_01X01" V 10700 5800 50  0000 C CNN
F 2 "my_lib:conn_1_smd" H 10600 5800 50  0001 C CNN
F 3 "" H 10600 5800 50  0000 C CNN
	1    10600 5800
	1    0    0    -1  
$EndComp
$Comp
L CONN_01X01 P5
U 1 1 5C23EB55
P 10150 5850
F 0 "P5" H 10150 5950 50  0000 C CNN
F 1 "CONN_01X01" V 10250 5850 50  0000 C CNN
F 2 "my_lib:conn_1_smd" H 10150 5850 50  0001 C CNN
F 3 "" H 10150 5850 50  0000 C CNN
	1    10150 5850
	1    0    0    -1  
$EndComp
Wire Wire Line
	10400 4550 10400 6000
Connection ~ 10400 5450
Connection ~ 10400 5100
Connection ~ 10400 4850
Text GLabel 10400 6000 2    60   Input ~ 0
gnd
Connection ~ 10400 5800
Text GLabel 9800 4550 0    60   Input ~ 0
vout1
Text GLabel 9800 4800 0    60   Input ~ 0
vout2
Text GLabel 9800 5100 0    60   Input ~ 0
vout3
Text GLabel 9800 5450 0    60   Input ~ 0
vout4
Text GLabel 9800 5850 0    60   Input ~ 0
vin
Wire Wire Line
	9800 4550 9950 4550
Wire Wire Line
	9800 4800 9950 4800
Wire Wire Line
	9800 5100 9950 5100
Wire Wire Line
	9800 5450 9950 5450
Wire Wire Line
	9800 5850 9950 5850
$EndSCHEMATC
